…
::: {.cell}

```{.r .cell-code}
(data_brms <- data |> 
  pivot_wider(names_from = c("resp"), values_from = c("n")) |> 
  mutate(total = A + B + N))
```

::: {.cell-output .cell-output-stdout}

```
# A tibble: 405 × 7
      id item_type source     A     B     N total
   <dbl> <chr>     <chr>  <dbl> <dbl> <dbl> <dbl>
 1   101 R         A          6     2    12    20
 2   101 R         B          4     4    12    20
 3   101 F         A          1     2    17    20
 4   101 F         B          1     4    15    20
 5   101 N         N          1     0    79    80
 6   102 R         A          7     4     9    20
 7   102 R         B          6     8     6    20
 8   102 F         A          8     5     7    20
 9   102 F         B          8     8     4    20
10   102 N         N         18    13    49    80
# ℹ 395 more rows
```
…
```{.r .cell-code}
(data_brms <- data_brms |> 
  mutate(
    tree1 = as.numeric(item_type == "R" & source == "A"),
    tree2 = as.numeric(item_type == "R" & source == "B"),
    tree3 = as.numeric(item_type == "F" & source == "A"),
    tree4 = as.numeric(item_type == "F" & source == "B"),
    tree5 = as.numeric(item_type == "N")
  ))
```

::: {.cell-output .cell-output-stdout}

```
# A tibble: 405 × 12
      id item_type source     A     B     N total tree1 tree2 tree3 tree4 tree5
   <dbl> <chr>     <chr>  <dbl> <dbl> <dbl> <dbl> <dbl> <dbl> <dbl> <dbl> <dbl>
 1   101 R         A          6     2    12    20     1     0     0     0     0
 2   101 R         B          4     4    12    20     0     1     0     0     0
 3   101 F         A          1     2    17    20     0     0     1     0     0
 4   101 F         B          1     4    15    20     0     0     0     1     0
 5   101 N         N          1     0    79    80     0     0     0     0     1
 6   102 R         A          7     4     9    20     1     0     0     0     0
 7   102 R         B          6     8     6    20     0     1     0     0     0
 8   102 F         A          8     5     7    20     0     0     1     0     0
 9   102 F         B          8     8     4    20     0     0     0     1     0
10   102 N         N         18    13    49    80     0     0     0     0     1
# ℹ 395 more rows
```
…
